{
  "name": "team",
  "plural": "teams",
  "base": "PersistedModel",
  "idInjection": true,
  "properties": {
    "name": {
      "type": "string",
      "required": true
    }
  },
  "validations": [],
  "relations": {
    "members": {
      "type": "hasAndBelongsToMany",
      "model": "user"
    },
    "owner": {
      "type": "belongsTo",
      "model": "user",
      "foreignKey": "ownerId"
    },
    "protocols": {
      "type": "hasMany",
      "model": "protocol",
      "polymorphic": "owner"
    }
  },
  "acls": [
    {
      "accessType": "READ",
      "principalType": "ROLE",
      "principalId": "teamMember",
      "permission": "ALLOW",
      "property": "findById"
    }
  ],
  "methods": []
}
