{
  "name": "user",
  "plural": "users",
  "base": "User",
  "hidden": [
    "email"
  ],
  "protected": [
    "status"
  ],
  "properties": {
    "firstName": {
      "type": "string",
      "required": false
    },
    "lastName": {
      "type": "string",
      "required": false
    },
    "affiliation": {
      "type": "string",
      "required": false
    },
    "title": {
      "type": "string",
      "required": false
    },
    "position": {
      "type": "string",
      "required": false
    }
  },
  "validations": [],
  "relations": {
    "accessTokens": {
      "type": "hasMany",
      "model": "accessToken",
      "foreignKey": "userId"
    },
    "identities": {
      "type": "hasMany",
      "model": "userIdentity",
      "foreignKey": "userId"
    },
    "credentials": {
      "type": "hasMany",
      "model": "userCredential",
      "foreignKey": "userId"
    },
    "roles": {
      "type": "hasMany",
      "model": "Role",
      "foreignKey": "principalId",
      "through": "RoleMapping"
    },
    "commits": {
      "type": "hasMany",
      "model": "commit"
    },
    "ownedTeam": {
      "type": "hasMany",
      "model": "team",
      "foreignKey": "ownerId"
    },
    "joinedTeam": {
      "type": "hasAndBelongsToMany",
      "model": "team"
    },
    "protocols": {
      "type": "hasMany",
      "model": "protocol",
      "polymorphic": "owner"
    },
    "comments": {
      "type": "hasMany",
      "model": "comment",
      "foreignKey": ""
    },
    "stars": {
      "type": "hasMany",
      "model": "protocol",
      "foreignKey": "userId",
      "through": "star"
    },
    "watchers": {
      "type": "hasMany",
      "model": "protocol",
      "foreignKey": "userId",
      "through": "watcher"
    }
  },
  "acls": [
    {
      "accessType": "*",
      "principalType": "ROLE",
      "principalId": "admin",
      "permission": "ALLOW"
    },
    {
      "accessType": "READ",
      "principalType": "ROLE",
      "principalId": "$unauthenticated",
      "permission": "DENY"
    },
    {
      "accessType": "READ",
      "principalType": "ROLE",
      "principalId": "$authenticated",
      "permission": "ALLOW"
    },
    {
      "accessType": "*",
      "principalType": "ROLE",
      "principalId": "$owner",
      "permission": "ALLOW"
    },
    {
      "accessType": "EXECUTE",
      "principalType": "ROLE",
      "principalId": "$authenticated",
      "permission": "ALLOW",
      "property": "getTeams"
    },
    {
      "accessType": "EXECUTE",
      "principalType": "ROLE",
      "principalId": "$unauthenticated",
      "permission": "ALLOW",
      "property": "saveNewPassword"
    }
  ],
  "methods": []
}
