{
  "name": "watcher",
  "plural": "watchers",
  "base": "PersistedModel",
  "idInjection": true,
  "options": {
    "validateUpsert": true
  },
  "properties": {
    "created": {
      "type": "date",
      "required": true
    }
  },
  "validations": [],
  "relations": {
    "protocol": {
      "type": "belongsTo",
      "model": "protocol",
      "foreignKey": "protocolId"
    },
    "user": {
      "type": "belongsTo",
      "model": "user",
      "foreignKey": "userId"
    }
  },
  "acls": [],
  "methods": []
}
